{
    "defaultSeverity": "error",
    "extends": ["tslint:recommended"],
    "jsRules": {},
    "rules": {
      "no-console": false,
      "quotemark": false,
      "max-classes-per-file": false,
      "ordered-imports": false,
      "one-variable-per-declaration":false
    },
    "rulesDirectory": []
  }